Toxic Comment Classification Challenge
…
We will make use of the ‘unnest_tokens’ from the package tidytext to tokenize our texts. We remove the stop words since these would make it harder to detect the most important patterns in our data.

train$comment_text <-gsub("[^a-zA-Z]"," ",train[,comment_text])

data<-unnest_tokens(train, word, comment_text)%>%
  anti_join(stop_words,by="word")%>%
  mutate(num_ch=nchar(word))%>%
  as.data.table()

data %>%
  count(word) %>%
  arrange(-n) 

## # A tibble: 124,845 x 2
##    word          n
##    <chr>     <int>
##  1 article   34464
##  2 wikipedia 29361
##  3 page      28246
##  4 talk      22927
##  5 don       14207
##  6 edit      11230
##  7 people    11013
##  8 articles  10180
##  9 time       9544
## 10 user       8918
## # ... with 124,835 more rows
…
data_bi<- separate(data_bi,bigram,c("word1","word2"))

data_bi<-
  data_bi %>%
  filter(!(word1 %in% stop_words$word)) %>%
  filter(!(word2 %in% stop_words$word)) %>%
  unite(bigram, word1, word2, sep = " ") %>%
  as.data.table()

data_bi %>%
  count(bigram) %>%
  arrange(-n) 

## # A tibble: 486,234 x 2
##    bigram              n
##    <chr>           <int>
##  1 talk page        8088
##  2 nigger nigger    2721
##  3 speedy deletion  2652
##  4 http www         1960
##  5 feel free        1437
##  6 talk contribs    1388
##  7 wikipedia org    1322
##  8 talk pages       1306
##  9 en wikipedia     1274
## 10 pig pig          1249
## # ... with 486,224 more rows
…
